Analisis Hasil CPNS 2024 Kemendikdasmen
…
## Warning: One or more parsing issues, call `problems()` on your data frame for details,
## e.g.:
##   dat <- vroom(...)
##   problems(dat)

hasil_skd

## # A tibble: 99,547 × 14
##     rank id         full_name last_edu   twk   tiu   tkp   skd decl_code jp_code
##    <dbl> <chr>      <chr>     <chr>    <int> <int> <int> <int> <chr>     <chr>  
##  1     1 243010201… ANITA VE… S-1 HUK…   115   120   195   430 P/L       JF0000…
##  2     2 243010201… AISYAH S… S-1 HUK…   100   120   196   416 P/L       JF0000…
##  3     3 243010201… DYAH AYU… S-1 HUK…    85   135   191   411 P/L       JF0000…
##  4     4 243010201… MUHAMMAD… S-1 HUK…    85   115   199   399 P/L       JF0000…
##  5     5 243010201… EDO DWI … S-1 HUK…    90   115   193   398 P/L       JF0000…
##  6     6 243010201… SILVIA M… S-1 HUK…    90   105   201   396 P/L       JF0000…
##  7     7 243010201… WIDYA PU… S-1 HUK…    90   105   196   391 P/L       JF0000…
##  8     8 243010201… RHEA ART… S-1 HUK…    95   110   184   389 P/L       JF0000…
##  9     9 243010201… DICHO SI… S-1 HUK…    90   100   192   382 P/L       JF0000…
## 10    10 243010201… FARADITA… S-1 HUK…    85   110   180   375 P/L       JF0000…
## # ℹ 99,537 more rows
## # ℹ 4 more variables: loc_code <chr>, type_code <chr>, allotment <int>,
## #   page_num <int>

Hasil SKB

hasil_skb <- read_csv("2024/test2v1.csv", 
                      col_types = cols(id = col_character())
                      )
hasil_skb

## # A tibble: 14,989 × 21
##     rank id    birthdate  last_edu edu_group   gpa   twk   tiu   tkp   skd skd40
##    <dbl> <chr> <date>     <chr>    <chr>     <dbl> <dbl> <dbl> <dbl> <dbl> <dbl>
##  1     1 2430… 1997-05-26 S-1 HUK… Universi…  2.92    85   135   191   411  29.9
##  2     2 2430… 1997-03-17 S-1 HUK… Universi…  3.87    95   110   184   389  28.3
##  3     3 2430… 2003-04-20 S-1 HUK… Universi…  3.93   100   120   196   416  30.3
##  4     4 2430… 2001-10-12 S-1 HUK… Universi…  3.78    90   105   201   396  28.8
##  5     5 2430… 2001-07-26 S-1 HUK… Universi…  3.84    90   100   192   382  27.8
##  6     6 2430… 1996-05-03 S-1 HUK… Universi…  3.26    70    90   178   338  24.6
##  7     7 2430… 2000-01-01 S-1 HUK… Universi…  3.74    85   115   199   399  29.0
##  8     8 2430… 2001-11-23 S-1 HUK… Universi…  3.84    80   100   182   362  26.3
##  9     9 2430… 1993-03-29 S-1 HUK… Universi…  3.8     85   110   180   375  27.3
## 10    10 2430… 1994-09-19 S-1 HUK… Universi…  3.66    80   100   177   357  26.0
## # ℹ 14,979 more rows
## # ℹ 10 more variables: skb <dbl>, skb60 <dbl>, final_score <dbl>,
## #   decl_code <chr>, jp_code <chr>, loc_code <chr>, type_code <chr>,
## #   edu_qual <chr>, num_edu_qual <chr>, page_num <dbl>
…
jabatan_formasi <- read_csv("2024/jabatan_formasi.csv") %>% 
  rename(jp_code = parent)

## Rows: 51 Columns: 2
## ── Column specification ────────────────────────────────────────────────────────
## Delimiter: ","
## chr (2): parent, job_position
## 
## ℹ Use `spec()` to retrieve the full column specification for this data.
## ℹ Specify the column types or set `show_col_types = FALSE` to quiet this message.

jabatan_formasi

## # A tibble: 51 × 2
##    jp_code   job_position                                    
##    <chr>     <chr>                                           
##  1 JF0000334 ANALIS HUKUM AHLI PERTAMA                       
##  2 JF0000905 DOSEN LEKTOR                                    
##  3 JF0000908 DOSEN ASISTEN AHLI                              
##  4 JF0001001 PENGEMBANG TEKNOLOGI PEMBELAJARAN AHLI PERTAMA  
##  5 JF0008014 ANALIS SUMBER DAYA MANUSIA APARATUR AHLI PERTAMA
##  6 JF0008017 PRANATA SUMBER DAYA MANUSIA APARATUR TERAMPIL   
##  7 JF0008403 PAMONG BUDAYA AHLI PERTAMA                      
##  8 JF0008406 PAMONG BUDAYA TERAMPIL                          
##  9 JF0008904 PERENCANA AHLI PERTAMA                          
## 10 JF0010504 PRANATA KOMPUTER AHLI PERTAMA                   
## # ℹ 41 more rows
…
## [1] 32934

Ketika dicek berdasarkan variabel id dan full_name,
ada 30885 dan 32934 data duplikat pada masing-masing variabel
id dan full_name. Inkonsistensi data ini akan
menyebabkan menurunnya keakuratan hasil analisis di tahap yang akan
datang sehingga perlu didalami lebih lanjut.

hasil_skd %>% 
  select(id, full_name, twk) %>% # tambah variabel full_name dan twk untuk V&V (verifikasi dan validasi)
  group_by(id) %>% 
  filter(n() > 1) %>% 
  ungroup()

## # A tibble: 61,770 × 3
##    id                full_name                                     twk
##    <chr>             <chr>                                       <int>
##  1 24301020120017621 "LINGGOMI ADINDA TAMARADHINA\nNAPITUPULU"      80
##  2 24301020120017621 "LINGGOMI ADINDA TAMARADHINA\r\nNAPITUPULU"    80
##  3 24301020110021143 "MUH ANDRI ALVIAN RAMADHAN\r\nALPHAROEDI"      NA
##  4 24301020110021143 "MUH ANDRI ALVIAN RAMADHAN\nALPHAROEDI"        NA
##  5 24301020120001553 "DIAN ASWITA"                                  75
##  6 24301020120001553 "DIAN ASWITA"                                  75
##  7 24301020110008472 "RAHMAT SALEH"                                105
##  8 24301020110008472 "RAHMAT SALEH"                                105
##  9 24301020120023931 "ANDI ANDARIANA"                              100
## 10 24301020120023931 "ANDI ANDARIANA"                              100
## # ℹ 61,760 more rows

Variabel full_name tampak memiliki duplikat untuk nama
yang memiliki sedikit perbedaan. Dalam hal ini, data yang mengandung
\r, \n atau \r\nakan dianggap
data yang berbeda walaupun secara holistik tidak ada perbedaan. Untuk
memperbaiki hal ini, menghapus lalu menyisakan satu data unik dari
variabel id akan lebih tepat.

hasil_skd_no_dupl <- hasil_skd %>% 
  distinct(id, .keep_all = TRUE)

hasil_skd_no_dupl

## # A tibble: 68,662 × 14
##     rank id         full_name last_edu   twk   tiu   tkp   skd decl_code jp_code
##    <dbl> <chr>      <chr>     <chr>    <int> <int> <int> <int> <chr>     <chr>  
##  1     1 243010201… ANITA VE… S-1 HUK…   115   120   195   430 P/L       JF0000…
##  2     2 243010201… AISYAH S… S-1 HUK…   100   120   196   416 P/L       JF0000…
##  3     3 243010201… DYAH AYU… S-1 HUK…    85   135   191   411 P/L       JF0000…
##  4     4 243010201… MUHAMMAD… S-1 HUK…    85   115   199   399 P/L       JF0000…
##  5     5 243010201… EDO DWI … S-1 HUK…    90   115   193   398 P/L       JF0000…
##  6     6 243010201… SILVIA M… S-1 HUK…    90   105   201   396 P/L       JF0000…
##  7     7 243010201… WIDYA PU… S-1 HUK…    90   105   196   391 P/L       JF0000…
##  8     8 243010201… RHEA ART… S-1 HUK…    95   110   184   389 P/L       JF0000…
##  9     9 243010201… DICHO SI… S-1 HUK…    90   100   192   382 P/L       JF0000…
## 10    10 243010201… FARADITA… S-1 HUK…    85   110   180   375 P/L       JF0000…
## # ℹ 68,652 more rows
## # ℹ 4 more variables: loc_code <chr>, type_code <chr>, allotment <int>,
## #   page_num <int>
…
hasil_skd_no_dupl$last_edu <- 
  str_replace_all(hasil_skd_no_dupl$last_edu, "[\\r\\n]", " ") %>%
  str_squish()

hasil_skd_no_dupl

## # A tibble: 68,662 × 14
##     rank id         full_name last_edu   twk   tiu   tkp   skd decl_code jp_code
##    <dbl> <chr>      <chr>     <chr>    <int> <int> <int> <int> <chr>     <chr>  
##  1     1 243010201… ANITA VE… S-1 HUK…   115   120   195   430 P/L       JF0000…
##  2     2 243010201… AISYAH S… S-1 HUK…   100   120   196   416 P/L       JF0000…
##  3     3 243010201… DYAH AYU… S-1 HUK…    85   135   191   411 P/L       JF0000…
##  4     4 243010201… MUHAMMAD… S-1 HUK…    85   115   199   399 P/L       JF0000…
##  5     5 243010201… EDO DWI … S-1 HUK…    90   115   193   398 P/L       JF0000…
##  6     6 243010201… SILVIA M… S-1 HUK…    90   105   201   396 P/L       JF0000…
##  7     7 243010201… WIDYA PU… S-1 HUK…    90   105   196   391 P/L       JF0000…
##  8     8 243010201… RHEA ART… S-1 HUK…    95   110   184   389 P/L       JF0000…
##  9     9 243010201… DICHO SI… S-1 HUK…    90   100   192   382 P/L       JF0000…
## 10    10 243010201… FARADITA… S-1 HUK…    85   110   180   375 P/L       JF0000…
## # ℹ 68,652 more rows
## # ℹ 4 more variables: loc_code <chr>, type_code <chr>, allotment <int>,
## #   page_num <int>

Tahap pembersihan data selanjutnya adalah menyeregamkan data
NULL. Di dataset ini, data kosong diisi dengan
NULL atau NA (system default R). Data poin
NULL harus diganti menjadi NA (system default
R) sehingga menjadi seragam.

hasil_skd_standardized_null <- hasil_skd_no_dupl %>% 
  mutate(across(where(is.character), ~ str_replace_all(.x, "^NULL$", NA_character_)))

hasil_skd_standardized_null

## # A tibble: 68,662 × 14
##     rank id         full_name last_edu   twk   tiu   tkp   skd decl_code jp_code
##    <dbl> <chr>      <chr>     <chr>    <int> <int> <int> <int> <chr>     <chr>  
##  1     1 243010201… ANITA VE… S-1 HUK…   115   120   195   430 P/L       JF0000…
##  2     2 243010201… AISYAH S… S-1 HUK…   100   120   196   416 P/L       JF0000…
##  3     3 243010201… DYAH AYU… S-1 HUK…    85   135   191   411 P/L       JF0000…
##  4     4 243010201… MUHAMMAD… S-1 HUK…    85   115   199   399 P/L       JF0000…
##  5     5 243010201… EDO DWI … S-1 HUK…    90   115   193   398 P/L       JF0000…
##  6     6 243010201… SILVIA M… S-1 HUK…    90   105   201   396 P/L       JF0000…
##  7     7 243010201… WIDYA PU… S-1 HUK…    90   105   196   391 P/L       JF0000…
##  8     8 243010201… RHEA ART… S-1 HUK…    95   110   184   389 P/L       JF0000…
##  9     9 243010201… DICHO SI… S-1 HUK…    90   100   192   382 P/L       JF0000…
## 10    10 243010201… FARADITA… S-1 HUK…    85   110   180   375 P/L       JF0000…
## # ℹ 68,652 more rows
## # ℹ 4 more variables: loc_code <chr>, type_code <chr>, allotment <int>,
## #   page_num <int>
…
IF page_num == page_num |
page_num == page_num + 1 THEN forward fill
ELSE do nothing

hasil_skd_forward_fill <- hasil_skd_standardized_null %>% 
  mutate(breakk = !(page_num == lag(page_num) | page_num == lag(page_num) + 1),
         group_id = cumsum(replace_na(breakk, TRUE))) %>%
  group_by(group_id) %>% 
  fill(c(jp_code, loc_code, type_code, allotment), .direction = "down") %>% 
  ungroup() %>% 
  select(-breakk, -group_id)

hasil_skd_forward_fill

## # A tibble: 68,662 × 14
##     rank id         full_name last_edu   twk   tiu   tkp   skd decl_code jp_code
##    <dbl> <chr>      <chr>     <chr>    <int> <int> <int> <int> <chr>     <chr>  
##  1     1 243010201… ANITA VE… S-1 HUK…   115   120   195   430 P/L       JF0000…
##  2     2 243010201… AISYAH S… S-1 HUK…   100   120   196   416 P/L       JF0000…
##  3     3 243010201… DYAH AYU… S-1 HUK…    85   135   191   411 P/L       JF0000…
##  4     4 243010201… MUHAMMAD… S-1 HUK…    85   115   199   399 P/L       JF0000…
##  5     5 243010201… EDO DWI … S-1 HUK…    90   115   193   398 P/L       JF0000…
##  6     6 243010201… SILVIA M… S-1 HUK…    90   105   201   396 P/L       JF0000…
##  7     7 243010201… WIDYA PU… S-1 HUK…    90   105   196   391 P/L       JF0000…
##  8     8 243010201… RHEA ART… S-1 HUK…    95   110   184   389 P/L       JF0000…
##  9     9 243010201… DICHO SI… S-1 HUK…    90   100   192   382 P/L       JF0000…
## 10    10 243010201… FARADITA… S-1 HUK…    85   110   180   375 P/L       JF0000…
## # ℹ 68,652 more rows
## # ℹ 4 more variables: loc_code <chr>, type_code <chr>, allotment <int>,
## #   page_num <int>
…
hasil_skd_na2zero <- hasil_skd_forward_fill %>% 
  replace_na(list(twk = 0L,
                  tiu = 0L,
                  tkp = 0L,
                  skd = 0L))

hasil_skd_na2zero

## # A tibble: 68,662 × 14
##     rank id         full_name last_edu   twk   tiu   tkp   skd decl_code jp_code
##    <dbl> <chr>      <chr>     <chr>    <int> <int> <int> <int> <chr>     <chr>  
##  1     1 243010201… ANITA VE… S-1 HUK…   115   120   195   430 P/L       JF0000…
##  2     2 243010201… AISYAH S… S-1 HUK…   100   120   196   416 P/L       JF0000…
##  3     3 243010201… DYAH AYU… S-1 HUK…    85   135   191   411 P/L       JF0000…
##  4     4 243010201… MUHAMMAD… S-1 HUK…    85   115   199   399 P/L       JF0000…
##  5     5 243010201… EDO DWI … S-1 HUK…    90   115   193   398 P/L       JF0000…
##  6     6 243010201… SILVIA M… S-1 HUK…    90   105   201   396 P/L       JF0000…
##  7     7 243010201… WIDYA PU… S-1 HUK…    90   105   196   391 P/L       JF0000…
##  8     8 243010201… RHEA ART… S-1 HUK…    95   110   184   389 P/L       JF0000…
##  9     9 243010201… DICHO SI… S-1 HUK…    90   100   192   382 P/L       JF0000…
## 10    10 243010201… FARADITA… S-1 HUK…    85   110   180   375 P/L       JF0000…
## # ℹ 68,652 more rows
## # ℹ 4 more variables: loc_code <chr>, type_code <chr>, allotment <int>,
## #   page_num <int>
…
which(is.na(hasil_skd_na2zero$rank))

## [1] 68662

Dataset SKB

Setelah membersihkan dataset SKD, selanjutnya adalah pembersihan
dataset SKB. Prosedur pembersihan ini mirip dengan prosedur pembersihan
data SKD pada bagian sebelumnya. Diawali dengan pengecekan secara umum
tentang dataset SKB.

hasil_skb

## # A tibble: 14,989 × 21
##     rank id    birthdate  last_edu edu_group   gpa   twk   tiu   tkp   skd skd40
##    <dbl> <chr> <date>     <chr>    <chr>     <dbl> <dbl> <dbl> <dbl> <dbl> <dbl>
##  1     1 2430… 1997-05-26 S-1 HUK… Universi…  2.92    85   135   191   411  29.9
##  2     2 2430… 1997-03-17 S-1 HUK… Universi…  3.87    95   110   184   389  28.3
##  3     3 2430… 2003-04-20 S-1 HUK… Universi…  3.93   100   120   196   416  30.3
##  4     4 2430… 2001-10-12 S-1 HUK… Universi…  3.78    90   105   201   396  28.8
##  5     5 2430… 2001-07-26 S-1 HUK… Universi…  3.84    90   100   192   382  27.8
##  6     6 2430… 1996-05-03 S-1 HUK… Universi…  3.26    70    90   178   338  24.6
##  7     7 2430… 2000-01-01 S-1 HUK… Universi…  3.74    85   115   199   399  29.0
##  8     8 2430… 2001-11-23 S-1 HUK… Universi…  3.84    80   100   182   362  26.3
##  9     9 2430… 1993-03-29 S-1 HUK… Universi…  3.8     85   110   180   375  27.3
## 10    10 2430… 1994-09-19 S-1 HUK… Universi…  3.66    80   100   177   357  26.0
## # ℹ 14,979 more rows
## # ℹ 10 more variables: skb <dbl>, skb60 <dbl>, final_score <dbl>,
## #   decl_code <chr>, jp_code <chr>, loc_code <chr>, type_code <chr>,
## #   edu_qual <chr>, num_edu_qual <chr>, page_num <dbl>
…
## [1] 0

Tidak tampak data duplikat pada dataset SKB. Namun begitu, kolom
jp_code, loc_code, type_code,
edu_qual, dan num_edu_qual memiliki data
NULL yang tidak konsisten dengan nilai kosong system default R.
Maka dari itu, penyeragaman perlu dilakukan untuk standarisasi nilai
kosong.

hasil_skb_standardized_nulls <- hasil_skb %>% 
  mutate(across(where(is.character), ~ str_replace_all(.x, "^NULL$", NA_character_)))

hasil_skb_standardized_nulls

## # A tibble: 14,989 × 21
##     rank id    birthdate  last_edu edu_group   gpa   twk   tiu   tkp   skd skd40
##    <dbl> <chr> <date>     <chr>    <chr>     <dbl> <dbl> <dbl> <dbl> <dbl> <dbl>
##  1     1 2430… 1997-05-26 S-1 HUK… Universi…  2.92    85   135   191   411  29.9
##  2     2 2430… 1997-03-17 S-1 HUK… Universi…  3.87    95   110   184   389  28.3
##  3     3 2430… 2003-04-20 S-1 HUK… Universi…  3.93   100   120   196   416  30.3
##  4     4 2430… 2001-10-12 S-1 HUK… Universi…  3.78    90   105   201   396  28.8
##  5     5 2430… 2001-07-26 S-1 HUK… Universi…  3.84    90   100   192   382  27.8
##  6     6 2430… 1996-05-03 S-1 HUK… Universi…  3.26    70    90   178   338  24.6
##  7     7 2430… 2000-01-01 S-1 HUK… Universi…  3.74    85   115   199   399  29.0
##  8     8 2430… 2001-11-23 S-1 HUK… Universi…  3.84    80   100   182   362  26.3
##  9     9 2430… 1993-03-29 S-1 HUK… Universi…  3.8     85   110   180   375  27.3
## 10    10 2430… 1994-09-19 S-1 HUK… Universi…  3.66    80   100   177   357  26.0
## # ℹ 14,979 more rows
## # ℹ 10 more variables: skb <dbl>, skb60 <dbl>, final_score <dbl>,
## #   decl_code <chr>, jp_code <chr>, loc_code <chr>, type_code <chr>,
## #   edu_qual <chr>, num_edu_qual <chr>, page_num <dbl>

hasil_skb_forward_fill <- hasil_skb_standardized_nulls %>% 
  mutate(breakk = !(page_num == lag(page_num) | page_num == lag(page_num) + 1),
         group_id = cumsum(replace_na(breakk, TRUE))) %>%
  group_by(group_id) %>% 
  fill(c(jp_code, loc_code, type_code, edu_qual, num_edu_qual), .direction = "down") %>% 
  ungroup() %>% 
  select(-breakk, -group_id)

hasil_skb_forward_fill

## # A tibble: 14,989 × 21
##     rank id    birthdate  last_edu edu_group   gpa   twk   tiu   tkp   skd skd40
##    <dbl> <chr> <date>     <chr>    <chr>     <dbl> <dbl> <dbl> <dbl> <dbl> <dbl>
##  1     1 2430… 1997-05-26 S-1 HUK… Universi…  2.92    85   135   191   411  29.9
##  2     2 2430… 1997-03-17 S-1 HUK… Universi…  3.87    95   110   184   389  28.3
##  3     3 2430… 2003-04-20 S-1 HUK… Universi…  3.93   100   120   196   416  30.3
##  4     4 2430… 2001-10-12 S-1 HUK… Universi…  3.78    90   105   201   396  28.8
##  5     5 2430… 2001-07-26 S-1 HUK… Universi…  3.84    90   100   192   382  27.8
##  6     6 2430… 1996-05-03 S-1 HUK… Universi…  3.26    70    90   178   338  24.6
##  7     7 2430… 2000-01-01 S-1 HUK… Universi…  3.74    85   115   199   399  29.0
##  8     8 2430… 2001-11-23 S-1 HUK… Universi…  3.84    80   100   182   362  26.3
##  9     9 2430… 1993-03-29 S-1 HUK… Universi…  3.8     85   110   180   375  27.3
## 10    10 2430… 1994-09-19 S-1 HUK… Universi…  3.66    80   100   177   357  26.0
## # ℹ 14,979 more rows
## # ℹ 10 more variables: skb <dbl>, skb60 <dbl>, final_score <dbl>,
## #   decl_code <chr>, jp_code <chr>, loc_code <chr>, type_code <chr>,
## #   edu_qual <chr>, num_edu_qual <chr>, page_num <dbl>
…
